{
    "id": "nodebb-theme-themanadrain",
    "name": "The Mana Drain Theme",
    "description": "NodeBB theme for Vintage Magic website The Mana Drain",
    "url": "https://bitbucket.org/andyprobasco/nodebb-theme-themanadrain",
    "baseTheme": "nodebb-theme-material"
}
